!
version 15.1
no service timestamps log datetime msec
no service timestamps debug datetime msec
no service password-encryption
!
hostname Router
!
!
!
!
!
!
!
!
no ip cef
no ipv6 cef
!
!
!
!
license udi pid CISCO2811/K9 sn FTX1017Q2M4-
!
!
!
!
!
!
!
!
!
!
!
spanning-tree mode pvst
!
!
!
!
!
!
interface FastEthernet0/0
 no ip address
 duplex auto
 speed auto
 shutdown
!
interface FastEthernet0/1
 no ip address
 duplex auto
 speed auto
 shutdown
!
interface FastEthernet1/0
 no ip address
!
interface FastEthernet1/0.1
 encapsulation dot1Q 350
 ip address 172.17.131.195 255.255.255.192
!
interface FastEthernet1/0.2
 encapsulation dot1Q 351
 ip address 172.17.131.67 255.255.255.192
!
interface FastEthernet1/0.3
 encapsulation dot1Q 352
 ip address 172.17.130.195 255.255.255.192
!
interface FastEthernet1/0.4
 encapsulation dot1Q 353
 ip address 172.17.132.3 255.255.255.224
!
interface FastEthernet1/0.5
 encapsulation dot1Q 354
 ip address 172.17.132.67 255.255.255.224
!
interface FastEthernet1/0.6
 encapsulation dot1Q 340
 ip address 172.17.130.131 255.255.255.192
!
interface FastEthernet1/0.7
 encapsulation dot1Q 341
 ip address 172.17.130.3 255.255.255.128
!
interface FastEthernet1/0.8
 encapsulation dot1Q 342
 ip address 172.17.128.3 255.255.255.128
!
interface FastEthernet1/0.9
 encapsulation dot1Q 343
 ip address 172.17.129.131 255.255.255.128
!
interface FastEthernet1/0.10
 encapsulation dot1Q 344
 ip address 172.17.131.131 255.255.255.192
!
interface FastEthernet1/0.11
 encapsulation dot1Q 345
 ip address 172.17.132.35 255.255.255.224
!
interface FastEthernet1/0.12
 encapsulation dot1Q 346
 ip address 172.17.131.3 255.255.255.192
!
interface FastEthernet1/0.13
 encapsulation dot1Q 347
 ip address 172.17.128.131 255.255.255.128
!
interface FastEthernet1/0.14
 encapsulation dot1Q 348
 ip address 172.17.132.99 255.255.255.240
!
interface FastEthernet1/0.15
 encapsulation dot1Q 349
 ip address 172.17.132.115 255.255.255.240
!
interface FastEthernet1/0.16
 encapsulation dot1Q 355
 ip address 172.17.129.3 255.255.255.128
!
interface Vlan1
 no ip address
 shutdown
!
router ospf 1
 log-adjacency-changes
 network 172.17.129.0 0.0.0.127 area 0
 network 172.17.132.32 0.0.0.31 area 2
 network 172.17.131.0 0.0.0.63 area 2
 network 172.17.128.128 0.0.0.127 area 2
 network 172.17.132.96 0.0.0.15 area 2
 network 172.17.132.112 0.0.0.15 area 2
!
ip classless
!
ip flow-export version 9
!
!
!
!
!
!
!
!
line con 0
!
line aux 0
!
line vty 0 4
 login
!
!
!
end

